<svg width="60" height="60" viewBox="0 0 60 60" fill="none" xmlns="http://www.w3.org/2000/svg">
<path d="M53.3333 4H8V45.3333H53.3333V4Z" fill="#F6EFF1" stroke="#A26376" stroke-width="1.3" stroke-miterlimit="10"/>
<path d="M37.3333 17.7778L30.5176 13.8767L24 17.7778V4H37.3333V17.7778Z" stroke="#A26376" stroke-width="1.3" stroke-miterlimit="10"/>
<path d="M7 38.3108C7 37.4441 7.55826 36.676 8.38266 36.4084L15.187 34.2003C15.5883 34.0701 16.0204 34.0701 16.4217 34.2003L24.3078 36.7595C24.5071 36.8242 24.7155 36.8571 24.9251 36.8571H32C33.1046 36.8571 34 37.7526 34 38.8571V52C34 53.1046 33.1046 54 32 54H9C7.89543 54 7 53.1046 7 52V38.3108Z" fill="#F6EFF1"/>
<path d="M12.9393 54.4429L34.4407 54.761C35.002 54.761 35.5574 54.6527 36.0724 54.4429L55.6096 46.4817C57.819 45.5815 58.7331 43.094 57.5863 41.1031C56.5542 39.3113 54.2186 38.583 52.2525 39.4398L39.8632 44.8388C39.3323 45.0701 38.7549 45.192 38.1699 45.1963L26.0293 45.2855" fill="#F6EFF1"/>
<path d="M12.9393 54.4429L34.4407 54.761C35.002 54.761 35.5574 54.6527 36.0724 54.4429L55.6096 46.4817C57.819 45.5815 58.7331 43.094 57.5863 41.1031C56.5542 39.3113 54.2186 38.583 52.2525 39.4398L39.8632 44.8388C39.3323 45.0701 38.7549 45.192 38.1699 45.1963L26.0293 45.2855" stroke="#A26376" stroke-width="1.3" stroke-linecap="round" stroke-linejoin="round"/>
<path d="M40.5843 44.5244V42.127C40.5843 40.224 38.9438 38.6813 36.9201 38.6813H30.4059C26.7418 38.6813 25.6221 35.8099 20.1258 35.8099C14.6296 35.8099 12.2567 39.3334 12.2567 39.3334V54" stroke="#A26376" stroke-width="1.3" stroke-linecap="round" stroke-linejoin="round"/>
<path d="M12.2566 33.3334H1.33331V57.3334H12.2566V33.3334Z" fill="#F6EFF1" stroke="#A26376" stroke-width="1.3" stroke-linecap="round" stroke-linejoin="round"/>
</svg>
